{
    "data": {
        "opportAmountTotal": 0,
        "opportCount": 0,
        "orderAmountTotal": 0,
        "orderCount": 0,
        "pageInfo": {
            "endRow": 10,
            "firstPage": 1,
            "hasNextPage": true,
            "hasPreviousPage": false,
            "isFirstPage": true,
            "isLastPage": false,
            "lastPage": 8,
            "navigateFirstPage": 1,
            "navigateLastPage": 8,
            "navigatePages": 8,
            "navigatepageNums": [1,2,3,4,5,6,7,8],
            "nextPage": 2,
            "pageNum": 1,
            "pageSize": 10,
            "pages": 20,
            "prePage": 0,
            "size": 10,
            "startRow": 1,
            "total": 197,
            "list": [
                {
                    "cityName": "盘锦市",
                    "companyid": null,
                    "contactId": null,
                    "createdate": 1491837892000,
                    "creator": 555555924,
                    "currency": "RMB",
                    "currentStageValue": "已转订单合同",
                    "currentstage": "CS03",
                    "custName": "锦州双盛运输有限公司",
                    "custid": 6530,
                    "custstatus": null,
                    "detail": "CLY9407GYYD",
                    "modifyby": null,
                    "modifydate": null,
                    "opportid": 3,
                    "opportno": "17-000001",
                    "opportsubject": "购买液罐车",
                    "opporttype": "OT01",
                    "ordersource": null,
                    "orgid": null,
                    "paymentmethod": "PAM01",
                    "planmoney": 400000,
                    "plansigndate": 1491782400000,
                    "possibility": "PS03",
                    "possibilityValue": "高",
                    "productCategoryName": "液罐车",
                    "productcategory": "PC01",
                    "productcount": null,
                    "productid": "CLY9407GYYD",
                    "productvariety": "PV02",
                    "remark": "智汇平台生产系统第一次试运行",
                    "stage": "ST05",
                    "stageValue": "生成合同",
                    "status": "T",
                    "unitid": null,
                    "userName": "王岳宪"
                },{
                    "cityName": "盘锦市",
                    "companyid": null,
                    "contactId": null,
                    "createdate": 1491837892000,
                    "creator": 555555924,
                    "currency": "RMB",
                    "currentStageValue": "已转订单合同",
                    "currentstage": "CS03",
                    "custName": "锦州双盛运输有限公司",
                    "custid": 6530,
                    "custstatus": null,
                    "detail": "CLY9407GYYD",
                    "modifyby": null,
                    "modifydate": null,
                    "opportid": 3,
                    "opportno": "17-000001",
                    "opportsubject": "购买液罐车",
                    "opporttype": "OT01",
                    "ordersource": null,
                    "orgid": null,
                    "paymentmethod": "PAM01",
                    "planmoney": 400000,
                    "plansigndate": 1491782400000,
                    "possibility": "PS03",
                    "possibilityValue": "高",
                    "productCategoryName": "液罐车",
                    "productcategory": "PC01",
                    "productcount": null,
                    "productid": "CLY9407GYYD",
                    "productvariety": "PV02",
                    "remark": "智汇平台生产系统第一次试运行",
                    "stage": "ST05",
                    "stageValue": "生成合同",
                    "status": "T",
                    "unitid": null,
                    "userName": "王岳宪"
                },{
                    "cityName": "盘锦市",
                    "companyid": null,
                    "contactId": null,
                    "createdate": 1491837892000,
                    "creator": 555555924,
                    "currency": "RMB",
                    "currentStageValue": "已转订单合同",
                    "currentstage": "CS03",
                    "custName": "锦州双盛运输有限公司",
                    "custid": 6530,
                    "custstatus": null,
                    "detail": "CLY9407GYYD",
                    "modifyby": null,
                    "modifydate": null,
                    "opportid": 3,
                    "opportno": "17-000001",
                    "opportsubject": "购买液罐车",
                    "opporttype": "OT01",
                    "ordersource": null,
                    "orgid": null,
                    "paymentmethod": "PAM01",
                    "planmoney": 400000,
                    "plansigndate": 1491782400000,
                    "possibility": "PS03",
                    "possibilityValue": "高",
                    "productCategoryName": "液罐车",
                    "productcategory": "PC01",
                    "productcount": null,
                    "productid": "CLY9407GYYD",
                    "productvariety": "PV02",
                    "remark": "智汇平台生产系统第一次试运行",
                    "stage": "ST05",
                    "stageValue": "生成合同",
                    "status": "T",
                    "unitid": null,
                    "userName": "王岳宪"
                },
                {
                    "cityName": "湖州市",
                    "companyid": null,
                    "contactId": null,
                    "createdate": 1492590212000,
                    "creator": 555555821,
                    "currency": "RMB",
                    "currentStageValue": "已转订单合同",
                    "currentstage": "CS03",
                    "custName": "湖州恒信汽车贸易有限公司",
                    "custid": 6539,
                    "custstatus": null,
                    "detail": null,
                    "modifyby": null,
                    "modifydate": null,
                    "opportid": 7,
                    "opportno": "17-000004",
                    "opportsubject": "购买液罐车-测试",
                    "opporttype": "OT01",
                    "ordersource": null,
                    "orgid": null,
                    "paymentmethod": "PAM01",
                    "planmoney": 500000,
                    "plansigndate": 1493769600000,
                    "possibility": "PS03",
                    "possibilityValue": "高",
                    "productCategoryName": "液罐车",
                    "productcategory": "PC01",
                    "productcount": null,
                    "productid": "Z000",
                    "productvariety": "PV02",
                    "remark": null,
                    "stage": "ST01",
                    "stageValue": "初期跟踪",
                    "status": "T",
                    "unitid": null,
                    "userName": "解芳"
                }
            ]
        }
    },
    "msg": "",
    "success": true
}
