{
    "data": {
        "endRow": 10,
        "firstPage": 1,
        "hasNextPage": true,
        "hasPreviousPage": false,
        "isFirstPage": true,
        "isLastPage": false,
        "lastPage": 8,
        "list": [
            {
                "contemail": null,
                "contmobile": "53185833033",
                "contpersonid": 4172,
                "conttel": "53185833033",
                "custid": "1542",
                "custname": "中集车辆（山东）有限公司",
                "personname": "郭延华"
            },
            {
                "contemail": null,
                "contmobile": "53185833033",
                "contpersonid": 4172,
                "conttel": "53185833033",
                "custid": "1542",
                "custname": "中集车辆（山东）有限公司",
                "personname": "郭延华"
            },
            {
                "contemail": null,
                "contmobile": "53185833033",
                "contpersonid": 4172,
                "conttel": "53185833033",
                "custid": "1542",
                "custname": "中集车辆（山东）有限公司",
                "personname": "郭延华"
            },
            {
                "contemail": null,
                "contmobile": "53185833033",
                "contpersonid": 4172,
                "conttel": "53185833033",
                "custid": "1542",
                "custname": "中集车辆（山东）有限公司",
                "personname": "郭延华"
            },
            {
                "contemail": null,
                "contmobile": "53185833033",
                "contpersonid": 4172,
                "conttel": "53185833033",
                "custid": "1542",
                "custname": "中集车辆（山东）有限公司",
                "personname": "郭延华"
            },
            {
                "contemail": null,
                "contmobile": "53185833033",
                "contpersonid": 4172,
                "conttel": "53185833033",
                "custid": "1542",
                "custname": "中集车辆（山东）有限公司",
                "personname": "郭延华"
            },
            {
                "contemail": null,
                "contmobile": "53185833033",
                "contpersonid": 4172,
                "conttel": "53185833033",
                "custid": "1542",
                "custname": "中集车辆（山东）有限公司",
                "personname": "郭延华"
            },
            {
                "contemail": null,
                "contmobile": "53185833033",
                "contpersonid": 4172,
                "conttel": "53185833033",
                "custid": "1542",
                "custname": "中集车辆（山东）有限公司",
                "personname": "郭延华"
            },
            {
                "contemail": null,
                "contmobile": "53185833033",
                "contpersonid": 4172,
                "conttel": "53185833033",
                "custid": "1542",
                "custname": "中集车辆（山东）有限公司",
                "personname": "郭延华"
            },
            {
                "contemail": null,
                "contmobile": "53185833033",
                "contpersonid": 4172,
                "conttel": "53185833033",
                "custid": "1542",
                "custname": "中集车辆（山东）有限公司",
                "personname": "郭延华"
            }

        ],
        "navigateFirstPage": 1,
        "navigateLastPage": 8,
        "navigatePages": 8,
        "navigatepageNums": [
            1,
            2,
            3,
            4,
            5,
            6,
            7,
            8
        ],
        "nextPage": 2,
        "pageNum": 1,
        "pageSize": 10,
        "pages": 137,
        "prePage": 0,
        "size": 10,
        "startRow": 1,
        "total": 1364
    },
    "msg": "",
    "success": true
}